0,"One patient underwent coronary angiography which disclosed no pathology, but following which, while on a calcium channel blocking agent regimen, he had an uneventful course of chemotherapy with cisplatin."
0,"METHODS: A 20-year-old woman developed pain, redness, decreased vision, and corneal infiltrate in the right eye 15 days after bilateral LASIK."
0,We report a case of demyelinating disease occurring in a patient treated for psoriasis.
0,"The syndrome is characterized by hyperuricemia, hyperphosphatemia, hypocalcemia, hyperkalemia, and acute oliguric or anuric renal failure due to uric acid precipitation within the tubules (acute uric acid nephropathy) and to calcium phosphate deposition in the renal parenchyma and vessels.We report a case of acute spontaneous TLS in a patient with Crohn s disease treated with immunosuppressive drugs, who developed a plasmocytoma, in which serum uric acid concentration attained exceptionally high levels (44 mg/dL)."
0,"In contrast to infection secondary to human immunodeficiency virus (HIV), CMV colitis has not previously been described in this context."
0,The clinical course and histological findings are presented.
0,Two cases of candidiasis occured in the stomach.
0,Acute INH toxicity should be suspected in children presenting with seizures with or without fever.
0,"This therapy was curtailed after three cycles because of nausea, asthenia, and neuropsychological deterioration."
0,Pathophysiology of this disease is manifold and has been discussed as a posthemorrhagic complication as well as a neurological complication after operations with cardiopulmonary bypass.
0,A 78-year-old man with a long history of major depression responded well to a course of ECT but relapsed before maintenance treatments could be started.
0,"Most symptoms resolved within several days, but tongue thrust continued until 6 months of age."
0,Although urinary incontinence is listed as one side effect of these drugs in their package inserts there is only one report in the literature.
0,Case study on drug-related adverse effects of hepatitis C therapy.
0,Risperidone for control of agitation in dementia patients.
0,The duodenum was stitched up and separated from the aorta by omentoplasty.
0,"Administration of low-dose cidofovir was associated with clearance of BK virus DNA from blood and allograft, and stabilization of renal function in both patients, without significant toxicity."
0,Differential diagnosis and theories regarding the development of these neuroleptic-induced disorders are reviewed.
0,Rapid diagnosis may avert unnecessary changes in therapy to treat conditions which clinically mimic NEH.
0,Most studies report incidence rates ranging from 1.5 to 3%.
0,No other drugs were detected.
0,One of these patients showed pyramidal features and subsequently developed an optic neuropathy and pigmentary retinopathy.
0,We discuss how these patients management differs from other intensive care unit patients with CLS and how it is important to diagnose this condition early in haematological oncology cases.
0,The clinical course of this case indicates that IFN therapy precedes IDDM.
0,Histologic examination showed in both cases epithelioid granulomas in close relation with scattered pigment.
0,Adverse effects of atrial fibrillation and syncope induced by calcium-channel blockers in hypertrophic cardiomyopathy.
0,"Despite aggressive intensive care management, the patient died 17 days from the onset of symptoms due to multiple organ failure."
0,Fatal liver failure following generalized tonic-clonic seizures.
0,Reduction in the number of cataplectic episodes per week after 20 weeks of treatment constituted the basis for efficacy determination.
0,After 1 month of follow-up the patient underwent TEE which showed a dramatic reduction of the left atrial thrombosis.
0,"RESULTS: Findings of HLA typing revealed positive reaction for B 51, Cw 3, DR 8, DR 11, DQ 3."
0,Merkel cell carcinoma after liver transplantation: a case report.
1,This is the first report of acute kidney injury due to zonisamide-induced DRESS/DIHS.
1,It has been suggested that PPE caused by cytarabine does not recur with subsequent cytarabine re-challenge.
1,"We stress the potential of benzarone to cause hepatotoxicity, which usually resembles severe chronic active hepatitis."
1,"Quinine and its isomer quinidine are well-known causes of iatrogenic hypoglycaemia, due to excessive insulin secretion."
1,Ethambutol toxicity manifesting as acute onset psychosis.
1,Myoclonus associated with continuous dobutamine infusion in a patient with end-stage renal disease.
1,"To the best of the authors' knowledge, this is the first reported case of Propecia-associated cataract."
1,Lithium therapy was discontinued because of poor compliance to the medication and intolerable polyuria.
1,Case study: adverse response to clonidine.
1,Adrenaline dacryolith: detection by ultrasound examination of the nasolacrimal duct.
1,OBJECTIVE: To report 2 cases of nonconvulsive status epilepticus (NCSE) following infusion of ifosfamide.
1,Terlipressin-induced ventricular arrhythmia.
1,"Despite minimal short-term side effects and apparent efficacy, chronic treatment of MG with MM may be associated with increased risk of lymphoproliferative disorders."
1,Nonsustained polymorphous ventricular tachycardia during amiodarone therapy for atrial fibrillation complicating cardiomyopathy.
1,"We report a child with yolk sac tumor who developed localized pigmentation after the first course of chemotherapy regimen that included cisplatin, etoposide and bleomycin."
1,"Two cases are reported of patients who developed a hematologic malignancy several years after intravesical chemotherapy of superficial bladder cancer with etoglucid, doxorubicin, and mitomycin C."
1,"The more common grade 3 or 4 adverse effects of sunitinib include hypertension, fatigue, hand-foot syndrome, elevated lipase and lymphopenia."
1,"Dural sinus thrombosis developed in two children with acute lymphoblastic leukemia during induction treatment with vincristine sulfate, prednisone, and asparaginase."
1,"We describe the clinical response, as determined by increases in total Hb and decreased transfusion needs, in five patients with thalassemia intermedia treated with HU alone or in combination with SPB."
1,CONCLUSIONS: We report this case of the concomitant appearance of multiple skin cancers and nail changes associated with hydroxyurea use.
1,"A 45-year-old woman with steroid-dependent Crohn's colitis, successfully managed with maintenance infliximab infusions and methotrexate, developed a lupus-like syndrome eight months after her initial infusion."
1,"We report in detail an unusual adverse reaction to infliximab therapy, a drug-induced lupus-like clinical syndrome."
1,A potential role for renal and hepatic impairment in the observed protracted course of amiodarone-induced thyrotoxicosis is suggested.
1,The cause is presumed to be secondary to hypercoagulability due to asparaginase-induced antithrombin III deficiency.
1,"Torsades de Pointes induced by a combination of garenoxacin and disopyramide and other cytochrome P450, family 3, subfamily A polypeptide-4-influencing drugs during hypokalemia due to licorice."
1,"Abrupt, accidental withdrawal of trihexyphenidyl triggered severe exacerbation of the cranial dystonia associated with inspiratory stridor and acute respiratory difficulties, prompting emergency admission."
1,Serotonin syndrome caused by interaction between citalopram and fentanyl.
1,Valproate-induced hyperammonemia as a cause of altered mental status.
1,Cyclophosphamide pneumonitis.
1,Use of the Naranjo probability scale determined the association between cephalosporin use and leukopenia to be probable.
1,Acute acoustic nerve palsy associated with vincristine therapy.
1,"In this report, one patient who developed gangrene after bleomycin and vincristine/vinblastine chemotherapy for AIDS-related Kaposi's sarcoma and another HIV-infected patient who exhibited symptoms of severe Raynaud's phenomenon related to the same regimen are presented."
