0,"One patient underwent coronary angiography which disclosed no pathology, but following which, while on a calcium channel blocking agent regimen, he had an uneventful course of chemotherapy with cisplatin."
0,"METHODS: A 20-year-old woman developed pain, redness, decreased vision, and corneal infiltrate in the right eye 15 days after bilateral LASIK."
0,We report a case of demyelinating disease occurring in a patient treated for psoriasis.
0,"The syndrome is characterized by hyperuricemia, hyperphosphatemia, hypocalcemia, hyperkalemia, and acute oliguric or anuric renal failure due to uric acid precipitation within the tubules (acute uric acid nephropathy) and to calcium phosphate deposition in the renal parenchyma and vessels.We report a case of acute spontaneous TLS in a patient with Crohn s disease treated with immunosuppressive drugs, who developed a plasmocytoma, in which serum uric acid concentration attained exceptionally high levels (44 mg/dL)."
0,"In contrast to infection secondary to human immunodeficiency virus (HIV), CMV colitis has not previously been described in this context."
0,The clinical course and histological findings are presented.
0,Two cases of candidiasis occured in the stomach.
0,Acute INH toxicity should be suspected in children presenting with seizures with or without fever.
0,"This therapy was curtailed after three cycles because of nausea, asthenia, and neuropsychological deterioration."
0,Pathophysiology of this disease is manifold and has been discussed as a posthemorrhagic complication as well as a neurological complication after operations with cardiopulmonary bypass.
0,A 78-year-old man with a long history of major depression responded well to a course of ECT but relapsed before maintenance treatments could be started.
0,"Most symptoms resolved within several days, but tongue thrust continued until 6 months of age."
0,Although urinary incontinence is listed as one side effect of these drugs in their package inserts there is only one report in the literature.
0,Case study on drug-related adverse effects of hepatitis C therapy.
0,Risperidone for control of agitation in dementia patients.
0,The duodenum was stitched up and separated from the aorta by omentoplasty.
0,"Administration of low-dose cidofovir was associated with clearance of BK virus DNA from blood and allograft, and stabilization of renal function in both patients, without significant toxicity."
0,Differential diagnosis and theories regarding the development of these neuroleptic-induced disorders are reviewed.
0,Rapid diagnosis may avert unnecessary changes in therapy to treat conditions which clinically mimic NEH.
0,Most studies report incidence rates ranging from 1.5 to 3%.
0,No other drugs were detected.
0,One of these patients showed pyramidal features and subsequently developed an optic neuropathy and pigmentary retinopathy.
0,We discuss how these patients management differs from other intensive care unit patients with CLS and how it is important to diagnose this condition early in haematological oncology cases.
0,The clinical course of this case indicates that IFN therapy precedes IDDM.
0,Histologic examination showed in both cases epithelioid granulomas in close relation with scattered pigment.
0,Adverse effects of atrial fibrillation and syncope induced by calcium-channel blockers in hypertrophic cardiomyopathy.
0,"Despite aggressive intensive care management, the patient died 17 days from the onset of symptoms due to multiple organ failure."
0,Fatal liver failure following generalized tonic-clonic seizures.
0,Reduction in the number of cataplectic episodes per week after 20 weeks of treatment constituted the basis for efficacy determination.
0,After 1 month of follow-up the patient underwent TEE which showed a dramatic reduction of the left atrial thrombosis.
0,"RESULTS: Findings of HLA typing revealed positive reaction for B 51, Cw 3, DR 8, DR 11, DQ 3."
0,Merkel cell carcinoma after liver transplantation: a case report.
0,Reteplase was administered with concomitant lepirudin.
0,She subsequently developed Shewanella spp. bacteraemia without any clinical source of infection.
0,"The leucopenia and thrombocytopenia resolved on the 7th and 13th days of hospitalization, respectively."
0,"This case highlights the potential danger of high dose vitamin supplements in children, and the salutary effects of treatment with bisphosphonate."
0,"The clinical picture was characterized by visual hallucinations, agitation, anxiety, but no disorientation, and a severe cerebello-myoclonic syndrome with total inability to stand up and walk, which was fully reversible on discontinuing the medication."
0,"The infiltrate resolved in response to topical voriconazole, natamycin, and oral voriconazole."
0,A greater than 50% decrease in red cell transfusion requirement was observed in one patient with RA and one patient with AA.
0,Diabetes mellitus type 1 in five military aviators: flying with insulin.
0,"The purpose of this work is to report the case of oral chemical burns caused by topical self-medication for tooth pain relief, and also to discuss the clinical presentation and the treatment performed."
0,Protamine sulphate for treatment of severe post-reperfusion coagulopathy in pediatric liver transplantation.
0,"However, after a few months of treatment, apomorphine was ineffective in stopping abnormal movements, even when doses were increased."
0,"She had palpable cervicosternal fibrosis measuring 10 x 8 cm, with local inflammatory signs and functional consequences (cough, restricted cervical movement, dyspnoea and bronchitis) with a SOMA scale for grading the long-term side effects of radiation therapy of 19/14."
0,The pupils were pinpoint.
0,We present a case of an anaphylactoid reaction in a 62-y-o female following a first-time envenomation by a rattlesnake.
0,The principal types of renal disorders associated with chronic HCV infection are cryoglobulinemia or noncryoglobulinemic membranoproliferative glomerulonephritis (MPGN).
0,"On a compassionate basis, she then received oral posaconazole, 800 mg/d, in divided doses for 6 months."
0,Both of these findings are due to the unique effects of rifampicin on steroid metabolism.
0,"The first neurological symptoms like paraesthesia, severe hyperpathia of the legs and mild to heavy spinal ataxia occurred after an average time of treatment of 78 days and a mean dosage of 52 g."
0,Intestinal pseudo-obstruction was a prominent feature in the patient in this study.
0,"Her initial clinical presentation suggested postoperative infection, but the inflammation continued to progress despite antimicrobial therapy."
0,"The course of this patient's renal disease contrasts sharply with diffuse proliferative glomerulonephritis of idiopathic systemic lupus, and suggests that this rare complication of procainamide therapy may have a favorable course."
0,"At 16th month after transplantation, elevation of serum aminotransfereases was observed."
0,The transmethylation reaction is essential to DNA synthesis and to the maintenance of the myelin sheath by the methylation of myelin basic protein.
0,STUDY DESIGN: Harvesting of autologous bone graft from the posterior iliac crest for lumbar spinal fusions is a frequently performed procedure in orthopedic surgery.
0,A conventional 300-mg clopidogrel loading dose needs to be administered at least six hours before PCI to achieve an adequate antiplatelet effect.
0,A neuroprotective and neuroregenerative treatment attempt with pyridoxine and pyridostigmine was initiated.
0,A 68-year-old male was admitted for interstitial pneumonia associated with scleroderma.
0,"Etanercept is being tried in patients with congestive heart failure, where TNF-a seems to be increased."
0,Estrogen therapy in a male patient with chronic hepatitis C and irradiation-induced testicular dysfunction.
0,Recent data in animal studies have indicated that olanzapine and clozapine rapidly impair whole-body insulin sensitivity in a dose-dependent manner.
0,Oral vancomycin is often considered the drug of choice for severe Clostridium difficile-associated disease due to both its efficacy and pharmacokinetics.
0,Drug-induced hypersensitivity syndrome (DIHS)/drug rash with eosinophilia and systemic symptoms (DRESS) is a severe multiorgan reaction with reactivation of herpesviruses.
1,This is the first report of acute kidney injury due to zonisamide-induced DRESS/DIHS.
1,It has been suggested that PPE caused by cytarabine does not recur with subsequent cytarabine re-challenge.
1,"We stress the potential of benzarone to cause hepatotoxicity, which usually resembles severe chronic active hepatitis."
1,"Quinine and its isomer quinidine are well-known causes of iatrogenic hypoglycaemia, due to excessive insulin secretion."
1,Ethambutol toxicity manifesting as acute onset psychosis.
1,Myoclonus associated with continuous dobutamine infusion in a patient with end-stage renal disease.
1,"To the best of the authors' knowledge, this is the first reported case of Propecia-associated cataract."
1,Lithium therapy was discontinued because of poor compliance to the medication and intolerable polyuria.
1,Case study: adverse response to clonidine.
1,Adrenaline dacryolith: detection by ultrasound examination of the nasolacrimal duct.
1,OBJECTIVE: To report 2 cases of nonconvulsive status epilepticus (NCSE) following infusion of ifosfamide.
1,Terlipressin-induced ventricular arrhythmia.
1,"Despite minimal short-term side effects and apparent efficacy, chronic treatment of MG with MM may be associated with increased risk of lymphoproliferative disorders."
1,Nonsustained polymorphous ventricular tachycardia during amiodarone therapy for atrial fibrillation complicating cardiomyopathy.
1,"We report a child with yolk sac tumor who developed localized pigmentation after the first course of chemotherapy regimen that included cisplatin, etoposide and bleomycin."
1,"Two cases are reported of patients who developed a hematologic malignancy several years after intravesical chemotherapy of superficial bladder cancer with etoglucid, doxorubicin, and mitomycin C."
1,"The more common grade 3 or 4 adverse effects of sunitinib include hypertension, fatigue, hand-foot syndrome, elevated lipase and lymphopenia."
1,"Dural sinus thrombosis developed in two children with acute lymphoblastic leukemia during induction treatment with vincristine sulfate, prednisone, and asparaginase."
1,"We describe the clinical response, as determined by increases in total Hb and decreased transfusion needs, in five patients with thalassemia intermedia treated with HU alone or in combination with SPB."
1,CONCLUSIONS: We report this case of the concomitant appearance of multiple skin cancers and nail changes associated with hydroxyurea use.
1,"A 45-year-old woman with steroid-dependent Crohn's colitis, successfully managed with maintenance infliximab infusions and methotrexate, developed a lupus-like syndrome eight months after her initial infusion."
1,"We report in detail an unusual adverse reaction to infliximab therapy, a drug-induced lupus-like clinical syndrome."
1,A potential role for renal and hepatic impairment in the observed protracted course of amiodarone-induced thyrotoxicosis is suggested.
1,The cause is presumed to be secondary to hypercoagulability due to asparaginase-induced antithrombin III deficiency.
1,"Torsades de Pointes induced by a combination of garenoxacin and disopyramide and other cytochrome P450, family 3, subfamily A polypeptide-4-influencing drugs during hypokalemia due to licorice."
1,"Abrupt, accidental withdrawal of trihexyphenidyl triggered severe exacerbation of the cranial dystonia associated with inspiratory stridor and acute respiratory difficulties, prompting emergency admission."
1,Serotonin syndrome caused by interaction between citalopram and fentanyl.
1,Valproate-induced hyperammonemia as a cause of altered mental status.
1,Cyclophosphamide pneumonitis.
1,Use of the Naranjo probability scale determined the association between cephalosporin use and leukopenia to be probable.
1,Acute acoustic nerve palsy associated with vincristine therapy.
1,"In this report, one patient who developed gangrene after bleomycin and vincristine/vinblastine chemotherapy for AIDS-related Kaposi's sarcoma and another HIV-infected patient who exhibited symptoms of severe Raynaud's phenomenon related to the same regimen are presented."
1,Atrioventricular block complicating amiodarone-induced hypothyroidism in a patient with pre-excitation and rate-dependent bilateral bundle branch block.
1,"After a second dose of metoclopramide, these symptoms recurred and were associated with confusion, agitation, fever, diaphoresis, tachypnea, tachycardia, and hypertension."
1,RESULTS: Replacing valproate with lamotrigine resulted in a decrease in serum testosterone concentrations in all 3 women.
1,Docetaxel induced Meibomian duct inflammation and blockage is the likely cause of this presentation in a patient with no history of eyelid masses in the past.
1,"Finally, reserpine toxicity, in particular central nervous system (CNS) disturbances, was reported more frequently in patients also receiving barbiturates, suggesting additive CNS effects."
1,One of the subjects who was using extemporaneous topical minoxidil had hypertension and arteriosclerotic disease and the other died of a myocardial infarction.
1,This sulfonamide like nephropathy should be differentiated from acetazolamide-related calcium phosphate nephrolithiasis.
1,An amiodarone optic neuropathy has been described.
1,Intensive high-flux hemodiafiltration is often used in the management of vancomycin toxicity.
1,The case of a 4-year-old girl with valproate-induced stupor and electroencephalographic pattern of increased fast activity is reported.
1,Pancreatitis has been noted to be a complication in 2-16% of patients undergoing treatment with L-asparaginase for a variety of pediatric neoplasms.
1,"Both patients were then treated with a carboplatin alternative to cisplatin in the following courses, which resulted in neither a relapse of the colitis nor a recurrence of the malignancies up to this time."
1,"From these data, acute generalized dystonia with brainstem and thalamic lesions may occur in WD patients after an initial d-penicillamine therapy."
1,Amikacin-induced type 5 Bartter-like syndrome with severe hypocalcemia.
1,Early-onset pentamidine-associated second-degree heart block and sinus bradycardia: case report and review of the literature.
1,An encephalopathy and cardiomyopathy developed in a seventeen-year-old girl with chemotherapy-induced renal failure while receiving an intravesical aluminum infusion for hemorrhagic cystitis.
1,They continued to rise for five more days before salicylate hepatotoxicity was suspected.
1,A new type of minocycline-induced cutaneous hyperpigmentation.
1,One patient developed large intramural esophageal hematoma as a complication of heparin therapy.
1,"Despite the low dosage of warfarin, international normalized ratio (INR) was markedly elevated from 1.15 to 11.28 for only 4 days, and bleeding symptoms concurrently developed."
1,The sub-conjunctival haematoma in a patient receiving warfarin can pose a significant management challenge.
1,This report describes a case of bilateral ptosis induced by chloroquine.
1,"We report the case of a lung cancer patient with bronquiloalveolar carcinoma (BAC) presenting with BOOP after chemotherapy with docetaxel and gemcitabine producing severe respiratory insufficiency, and simulating a progression of the tumor."
1,Anterior lumbosacral radiculopathy after intrathecal methotrexate treatment.
1,Multifocal inflammatory leukoencephalopathy associated with levamisole therapy.
1,"However, peripheral neuropathy and bone marrow depression led to linezolid withdrawal in seven patients, and neuropathy may not be fully reversible in all patients."
1,"While most physicians are aware of heparin-induced thrombocytopenia and skin necrosis, the association of heparin and hyperkalemia is less well recognized."
1,"DISCUSSION: To our knowledge, this is the first case report illustrating neuralgic amyotrophy triggered by exposure to the antibiotics vancomycin, tobramycin, and piperacillin/tazobactam."
1,We report 5 patients (3 patients with chronic hepatitis C treated with pegylated interferon alfa-2b in association with oral ribavirin and two patients with chronic myelocytic leukemia) who developed local cutaneous reactions at sites of injection after the administration of weekly subcutaneous injections of pegylated interferon alfa-2b at different doses.
1,Severe C. difficile colitis occurred in 2 patients (6.1%) after receiving cisplatin-based combination chemotherapy for ovarian malignancies.
1,We report a case of 48-year-old woman with seizure disorder on divalproex sodium (Depakote) who presented with dyspnea.
1,Bone formation induced in an infant by systemic prostaglandin-E2 administration.
