1,OBJECTIVE: To report a patient developing fulminant liver failure while being treated with clarithromycin for pneumonia.
1,Several such HBV reactivations were reported after combined rituximab and multiagent chemotherapy for B-cell lymphomas.
1,We report a case of ST elevation in right precordial leads compatible with type 1 Brugada syndrome following administration of propafenone in a patient with Wolff-Parkinson-White syndrome who was receiving lithium at concentrations within therapeutic levels.
1,Marked QT prolongation and torsades de pointes secondary to acute ischemia in an elderly man taking dofetilide for atrial fibrillation: a cautionary tale.
1,L-Carnitine supplementation has been recommended to prevent the fatal hepatotoxic effects associated with valproic acid.
1,"Based on the clinical status of the patient, it was suspected that several conditions contributed to the abnormal hypersensitivity to warfarin."
1,Electrocardiographic findings and laboratory data indicated a diagnosis of acute myocardial infarction due to the L-thyroxine therapy.
1,Loperamide poisoning in the dog.
1,Initiation of posaconazole led to clinical improvement until the patient's demise from bacteremic vancomycin-resistant enterococcal peritonitis.
1,Gold nephropathy: tissue analysis by X-ray fluorescent spectroscopy.
1,Capecitabine-induced headache responding to diltiazem.
1,RESULTS: Two patients with ocular inflammation of unknown origin developed severe chorioretinitis after IVTA injection.
1,"Here, we present a case of sirolimus-associated interstitial pneumonitis in a cardiac transplant recipient that resolved completely with withdrawal of the drug and treatment with corticosteroids."
1,The literature of vincristine optic nerve toxicity is reviewed.
1,Pemphigus foliaceus induced by rifampicin.
1,Bleomycin induced hyperpigmentation with yolk sac tumor.
0,One of the 3 patients was reexposed to etanercept later on.
0,Grade IV leucopenia and thrombocytopenia were observed in one of three patients at the 100 mg/m2 dose level.
0,We report a case in which ARB was given to the mother from the first trimester until 26 weeks' gestation.
0,There was no evidence of another cause of colonic ischaemia.
0,Equine-derived antivenin was given in 14 cases (range 2-30 vials).
0,"Ganciclovir is a nucleotide-analogue similar to acyclovir, which has an in vitro activity against herpes simplex type 1, herpes simplex type 2 and varicella zoster virus."
0,The patient had a long history of constipation with daily use of mineral oil.
0,"Hemolytic uremic syndrome appeared, while no evidence of residual tumor was found."
0,WE is attributable to thiamine (vitamin B1) deficiency.
0,Pathological features such as large amounts of lipid droplets and lysosome-melanosome complexes were also found within the melanocytes.
0,"Minoxidil was found to be highly effective, free from commonly encountered side effects and capable of achieving excellent control of blood pressure when given once daily."
0,"His VPA concentration at admission was 238 micromol/L, a 48% decrease."
0,We report the use of granulocyte colony-stimulating factor (G-CSF) in a renal transplant recipient in whom neutropenia developed following a presumed viral infection.
0,The respiratory effects of morphine and the particular risks posed to the elderly patient are discussed.
0,SETTING: Private retina practice.
0,"Three patients showed marked improvement (decrease in VAS, >75%)."
