1,OBJECTIVE: To report a patient developing fulminant liver failure while being treated with clarithromycin for pneumonia.
1,Several such HBV reactivations were reported after combined rituximab and multiagent chemotherapy for B-cell lymphomas.
1,We report a case of ST elevation in right precordial leads compatible with type 1 Brugada syndrome following administration of propafenone in a patient with Wolff-Parkinson-White syndrome who was receiving lithium at concentrations within therapeutic levels.
1,Marked QT prolongation and torsades de pointes secondary to acute ischemia in an elderly man taking dofetilide for atrial fibrillation: a cautionary tale.
1,L-Carnitine supplementation has been recommended to prevent the fatal hepatotoxic effects associated with valproic acid.
1,"Based on the clinical status of the patient, it was suspected that several conditions contributed to the abnormal hypersensitivity to warfarin."
1,Electrocardiographic findings and laboratory data indicated a diagnosis of acute myocardial infarction due to the L-thyroxine therapy.
1,Loperamide poisoning in the dog.
1,Initiation of posaconazole led to clinical improvement until the patient's demise from bacteremic vancomycin-resistant enterococcal peritonitis.
1,Gold nephropathy: tissue analysis by X-ray fluorescent spectroscopy.
1,Capecitabine-induced headache responding to diltiazem.
1,RESULTS: Two patients with ocular inflammation of unknown origin developed severe chorioretinitis after IVTA injection.
1,"Here, we present a case of sirolimus-associated interstitial pneumonitis in a cardiac transplant recipient that resolved completely with withdrawal of the drug and treatment with corticosteroids."
1,The literature of vincristine optic nerve toxicity is reviewed.
1,Pemphigus foliaceus induced by rifampicin.
1,Bleomycin induced hyperpigmentation with yolk sac tumor.
1,Anaphylaxis to cisplatin following nine previous uncomplicated cycles.
1,"The patient received only the ophthalmic sulfonamide, and it was used for one day, but he developed Stevens-Johnson syndrome."
1,It is likely that RA contributed to the deterioration in renal function in these patients.
1,"Since amiodarone was first marketed in 1992 in Japan, the incidence of amiodarone-induced thyrotoxicosis (AIT) has been increasing."
1,METHODS: A 55-year-old woman became stuporous after overdose with lamotrigine (LTG) and valproic acid (VPA) tablets.
1,Case 3: A 29-year-old female alcoholic complained of general fatigue and a slight fever after 1.5 years of abstinence with cyanamide treatment.
1,"Although both the spontaneous occurrence of SLE and the psychosis as a sign of CNS involvement of SLE cannot be excluded, SLE could be considered as an adverse effect of carbamazepine."
1,"Anaphylactoid shock, disseminated intravascular coagulation, and anuric renal failure requiring dialysis occurred in a patient receiving zomepirac sodium for toothache."
1,Ticlopidine-induced interstitial pulmonary disease: a case report.
1,We report the case of a 27-year-old Indian woman who developed maculopapular rash and angioedema secondary to carbamazepine administration.
1,Delayed pseudocyst of the pancreas can be a complication of intramuscular L-asparaginase.
1,Two infants developed hyperkalemia shortly after cessation of prolonged ACTH therapy for infantile spasms.
1,Eruptive epidermoid cysts resulting from treatment with imiquimod.
1,"In this report, we present a case of hypoglycaemic coma associated with SP, an adverse reaction that is likely to be underreported and expected to occur with greater frequency as the use of SP increases."
1,We report the case of a 21-year-old female patient with dapsone hypersensitivity syndrome.
1,"Although high-dose methotrexate has been shown to be useful in the treatment of primary osteogenic sarcoma, the tumoricidal effects of therapy appear to have caused a fatal rise in intracranial pressure."
0,One of the 3 patients was reexposed to etanercept later on.
0,Grade IV leucopenia and thrombocytopenia were observed in one of three patients at the 100 mg/m2 dose level.
0,We report a case in which ARB was given to the mother from the first trimester until 26 weeks' gestation.
0,There was no evidence of another cause of colonic ischaemia.
0,Equine-derived antivenin was given in 14 cases (range 2-30 vials).
0,"Ganciclovir is a nucleotide-analogue similar to acyclovir, which has an in vitro activity against herpes simplex type 1, herpes simplex type 2 and varicella zoster virus."
0,The patient had a long history of constipation with daily use of mineral oil.
0,"Hemolytic uremic syndrome appeared, while no evidence of residual tumor was found."
0,WE is attributable to thiamine (vitamin B1) deficiency.
0,Pathological features such as large amounts of lipid droplets and lysosome-melanosome complexes were also found within the melanocytes.
0,"Minoxidil was found to be highly effective, free from commonly encountered side effects and capable of achieving excellent control of blood pressure when given once daily."
0,"His VPA concentration at admission was 238 micromol/L, a 48% decrease."
0,We report the use of granulocyte colony-stimulating factor (G-CSF) in a renal transplant recipient in whom neutropenia developed following a presumed viral infection.
0,The respiratory effects of morphine and the particular risks posed to the elderly patient are discussed.
0,SETTING: Private retina practice.
0,"Three patients showed marked improvement (decrease in VAS, >75%)."
0,Acute INH toxicity should be suspected in children presenting with seizures with or without fever.
0,We present a case of an anaphylactoid reaction in a 62-y-o female following a first-time envenomation by a rattlesnake.
0,Both infants continued on medical therapy until they reached 1 month of age.
0,A possible association between arterial dissection and ergotamine abuse is discussed.
0,This observation suggests that long-term solvent exposure may trigger MF and hasten its progression from the patch stage to the plaque and tumour stages.
0,"In patients with metastatic disease who had high levels of gastrin, SMS treatment for 5 to 24 months did not inhibit tumor growth or decrease gastrin levels."
0,Cerebral dural sinus thrombosis is an unusual syndrome in which a patient presents with a severe headache that may be associated with diverse neurologic and physical findings.
0,Administration of a large nesiritide bolus dose in a pediatric patient: case report and review of nesiritide use in pediatrics.
0,Fertility was preserved because 7 months later the woman became pregnant and had an uncomplicated pregnancy and delivery at term.
0,Early detection of these cases has practical importance since the identification and elimination of the causative drug is essential for therapy success.
0,"Her physical appearance, elevated and relatively nonsuppressible plasma cortisol levels, and radiologic study supported a tentative diagnosis of Cushing's syndrome in a critically ill patient."
0,The entire bezoar could be removed endoscopically.
0,New serologic tests show promise.
0,This case is reported to remind clinicians of the frequent presence of psychiatric symptoms in Sydenham's chorea.
0,"METHODS: A 20-year-old woman developed pain, redness, decreased vision, and corneal infiltrate in the right eye 15 days after bilateral LASIK."
0,The mortality rate associated with respiratory failure due to invasive fungal infections after allogeneic hematopoietic stem cell transplantation (HSCT) is exceedingly high.
