1,OBJECTIVE: To report a patient developing fulminant liver failure while being treated with clarithromycin for pneumonia.
1,Several such HBV reactivations were reported after combined rituximab and multiagent chemotherapy for B-cell lymphomas.
1,We report a case of ST elevation in right precordial leads compatible with type 1 Brugada syndrome following administration of propafenone in a patient with Wolff-Parkinson-White syndrome who was receiving lithium at concentrations within therapeutic levels.
1,Marked QT prolongation and torsades de pointes secondary to acute ischemia in an elderly man taking dofetilide for atrial fibrillation: a cautionary tale.
1,L-Carnitine supplementation has been recommended to prevent the fatal hepatotoxic effects associated with valproic acid.
1,"Based on the clinical status of the patient, it was suspected that several conditions contributed to the abnormal hypersensitivity to warfarin."
1,Electrocardiographic findings and laboratory data indicated a diagnosis of acute myocardial infarction due to the L-thyroxine therapy.
1,Loperamide poisoning in the dog.
1,Initiation of posaconazole led to clinical improvement until the patient's demise from bacteremic vancomycin-resistant enterococcal peritonitis.
1,Gold nephropathy: tissue analysis by X-ray fluorescent spectroscopy.
1,Capecitabine-induced headache responding to diltiazem.
1,RESULTS: Two patients with ocular inflammation of unknown origin developed severe chorioretinitis after IVTA injection.
1,"Here, we present a case of sirolimus-associated interstitial pneumonitis in a cardiac transplant recipient that resolved completely with withdrawal of the drug and treatment with corticosteroids."
1,The literature of vincristine optic nerve toxicity is reviewed.
1,Pemphigus foliaceus induced by rifampicin.
1,Bleomycin induced hyperpigmentation with yolk sac tumor.
1,Anaphylaxis to cisplatin following nine previous uncomplicated cycles.
1,"The patient received only the ophthalmic sulfonamide, and it was used for one day, but he developed Stevens-Johnson syndrome."
1,It is likely that RA contributed to the deterioration in renal function in these patients.
1,"Since amiodarone was first marketed in 1992 in Japan, the incidence of amiodarone-induced thyrotoxicosis (AIT) has been increasing."
1,METHODS: A 55-year-old woman became stuporous after overdose with lamotrigine (LTG) and valproic acid (VPA) tablets.
1,Case 3: A 29-year-old female alcoholic complained of general fatigue and a slight fever after 1.5 years of abstinence with cyanamide treatment.
1,"Although both the spontaneous occurrence of SLE and the psychosis as a sign of CNS involvement of SLE cannot be excluded, SLE could be considered as an adverse effect of carbamazepine."
1,"Anaphylactoid shock, disseminated intravascular coagulation, and anuric renal failure requiring dialysis occurred in a patient receiving zomepirac sodium for toothache."
1,Ticlopidine-induced interstitial pulmonary disease: a case report.
1,We report the case of a 27-year-old Indian woman who developed maculopapular rash and angioedema secondary to carbamazepine administration.
1,Delayed pseudocyst of the pancreas can be a complication of intramuscular L-asparaginase.
1,Two infants developed hyperkalemia shortly after cessation of prolonged ACTH therapy for infantile spasms.
1,Eruptive epidermoid cysts resulting from treatment with imiquimod.
1,"In this report, we present a case of hypoglycaemic coma associated with SP, an adverse reaction that is likely to be underreported and expected to occur with greater frequency as the use of SP increases."
1,We report the case of a 21-year-old female patient with dapsone hypersensitivity syndrome.
1,"Although high-dose methotrexate has been shown to be useful in the treatment of primary osteogenic sarcoma, the tumoricidal effects of therapy appear to have caused a fatal rise in intracranial pressure."
1,We report a case of fatal pulmonary toxicity in a patient with advanced non-small cell lung cancer who received erlotinib.
1,The renal insufficiency of three patients and the timing of the seizures implicate accumulation of ofloxacin as a contributing factor.
1,The objective of this report is to describe a case of fixed drug eruption that occurred during omeprazole treatment.
1,"The treatment for acidosis and hyperkalaemia should be started as soon as RTA is diagnosed, and the dosage of FK506 should also be reduced if possible."
1,Myasthenia gravis during low-dose IFN-alpha therapy for chronic hepatitis C.
1,RESULTS: Evidence of neurological improvement and rehabilitation potential after severe myelopathy due to intrathecal injection of doxorubicin.
1,Cyanamide-induced liver dysfunction after abstinence in alcoholics: a long-term follow-up study on four cases.
1,Prolonged prostate-specific antigen response in flutamide withdrawal syndrome despite disease progression.
1,"To our knowledge, this case is the first published report of levofloxacin-induced TEN."
1,A patient with intracranial osteosarcoma that arose 16 years after radiation therapy for hereditary retinoblastoma developed fatal cerebral edema and brainstem herniation after she received a single dose of intravenous methotrexate.
1,"Eleven patients developed infection requiring hospitalization while taking leflunomide including: lower respiratory tract infections (3), cellulitis (2), disseminated herpes zoster (2), probable TB liver (1), abdominal sepsis (1), mycotic aneurysm (1) and gastroenteritis (1)."
1,"The reported cases of in utero exposure to cyclosposphamide shared the following manifestations with our patient: growth deficiency, developmental delay, craniosynostosis, blepharophimosis, flat nasal bridge, abnormal ears, and distal limb defects including hypoplastic thumbs and oligodactyly."
1,Angioedema and dysphagia caused by contact allergy to inhaled budesonide.
1,One other patient on digoxin stopped taking it and developed cardiomyopathy.
1,Severe hepatitis caused by cyproterone acetate.
1,Subacute cholestatic hepatitis likely related to the use of senna for chronic constipation.
1,"The current study investigated the visual fields and visual electrophysiology of eight patients with known vigabatrin-attributed visual field loss, three of whom were reported previously."
1,The time course of events suggested that amphotericin B was the cause of the seizures in this AIDS patient.
1,Angioimmunoblastic lymphadenopathy with dysproteinemia following doxycycline administration.
1,The first case concerns a 70-year-old man who developed severe aplastic anemia 7 weeks after treatment with 500 mg of ticlopidine daily.
1,We suggest discontinuing gemcitabine if radiation recall is observed.
1,"Currently the use of zidovudine is one of the few specific measures available, and as a potentially teratogenic and fetotoxic agent, any decision for its use requires evaluation of the potential for fetal damage."
1,Growth and adrenal suppression in asthmatic children treated with high-dose fluticasone propionate.
1,"RTA is one type of nephrotoxicity induced by FK506, and it is reversible in mild cases when appropriately treated."
1,"We report three cases of severe hepatotoxicity related to benzarone, a benzofuran derivative."
1,We hypothesize that capecitabine-induced headache is vascular in nature.
1,Development of Peyronie's disease during long-term colchicine treatment.
1,Progressive pulmonary fibrosis complicating cyclophosphamide therapy.
1,"Metoclopramide-induced parkinsonism is not rare, and appropriate dose reduction in patients with renal failure will help reduce the incidence of this morbidity."
1,Apparent central nervous system depression in infants after the use of topical brimonidine.
1,A patient with an allergy to a macrolide antibiotic was given tacrolimus and developed a sudden cutaneous reaction.
1,"In the second case, five cardiac arrests due to ventricular tachycardia and fibrillation occurred during several hours after beginning a trial of bretylium maintenance therapy for complex ventricular ectopy."
0,One of the 3 patients was reexposed to etanercept later on.
0,Grade IV leucopenia and thrombocytopenia were observed in one of three patients at the 100 mg/m2 dose level.
0,We report a case in which ARB was given to the mother from the first trimester until 26 weeks' gestation.
0,There was no evidence of another cause of colonic ischaemia.
0,Equine-derived antivenin was given in 14 cases (range 2-30 vials).
0,"Ganciclovir is a nucleotide-analogue similar to acyclovir, which has an in vitro activity against herpes simplex type 1, herpes simplex type 2 and varicella zoster virus."
0,The patient had a long history of constipation with daily use of mineral oil.
0,"Hemolytic uremic syndrome appeared, while no evidence of residual tumor was found."
0,WE is attributable to thiamine (vitamin B1) deficiency.
0,Pathological features such as large amounts of lipid droplets and lysosome-melanosome complexes were also found within the melanocytes.
0,"Minoxidil was found to be highly effective, free from commonly encountered side effects and capable of achieving excellent control of blood pressure when given once daily."
0,"His VPA concentration at admission was 238 micromol/L, a 48% decrease."
0,We report the use of granulocyte colony-stimulating factor (G-CSF) in a renal transplant recipient in whom neutropenia developed following a presumed viral infection.
0,The respiratory effects of morphine and the particular risks posed to the elderly patient are discussed.
0,SETTING: Private retina practice.
0,"Three patients showed marked improvement (decrease in VAS, >75%)."
0,Acute INH toxicity should be suspected in children presenting with seizures with or without fever.
0,We present a case of an anaphylactoid reaction in a 62-y-o female following a first-time envenomation by a rattlesnake.
0,Both infants continued on medical therapy until they reached 1 month of age.
0,A possible association between arterial dissection and ergotamine abuse is discussed.
0,This observation suggests that long-term solvent exposure may trigger MF and hasten its progression from the patch stage to the plaque and tumour stages.
0,"In patients with metastatic disease who had high levels of gastrin, SMS treatment for 5 to 24 months did not inhibit tumor growth or decrease gastrin levels."
0,Cerebral dural sinus thrombosis is an unusual syndrome in which a patient presents with a severe headache that may be associated with diverse neurologic and physical findings.
0,Administration of a large nesiritide bolus dose in a pediatric patient: case report and review of nesiritide use in pediatrics.
0,Fertility was preserved because 7 months later the woman became pregnant and had an uncomplicated pregnancy and delivery at term.
0,Early detection of these cases has practical importance since the identification and elimination of the causative drug is essential for therapy success.
0,"Her physical appearance, elevated and relatively nonsuppressible plasma cortisol levels, and radiologic study supported a tentative diagnosis of Cushing's syndrome in a critically ill patient."
0,The entire bezoar could be removed endoscopically.
0,New serologic tests show promise.
0,This case is reported to remind clinicians of the frequent presence of psychiatric symptoms in Sydenham's chorea.
0,"METHODS: A 20-year-old woman developed pain, redness, decreased vision, and corneal infiltrate in the right eye 15 days after bilateral LASIK."
0,The mortality rate associated with respiratory failure due to invasive fungal infections after allogeneic hematopoietic stem cell transplantation (HSCT) is exceedingly high.
0,A 78-year-old man with severe chronic obstructive pulmonary disease presented to our pain medicine clinic for treatment of post herpetic neuralgia.
0,"In each case, control was achieved rapidly after initiation and titration of a continuous haloperidol infusion."
0,"Clinical features include an acute, symmetrically progressive polyneuropathy, focal or generalized myokymia and a tendency for initial neurological deterioration followed by improvement, after cessation of chrysotherapy."
0,Tumour necrosis factor-alpha inhibitors including infliximab are often used to treat a number of recalcitrant medical conditions.
0,We present a patient with multiple intraoral ulcerations of the right buccal and alveolar mucosa that had previously been treated with nerve ablation therapy for trigeminal neuralgia.
0,"The patients differed with regard to risk; one patient had existing cardiopulmonary disease, and the other was free of such risk factors except liver disease."
0,"Three children presented with adrenal crises, manifested by vomiting and hypoglycaemia, after protracted courses of high-dose inhaled corticosteroids for asthma."
0,All children showed a major clinical improvement within three months despite concomitant reduction of the prednisone dose.
0,He experienced a severe skin reaction diagnosed as toxic epidermal necrolysis.
0,"INTRODUCTION: The clinical pattern of corneal calcification has been considered to be a part of chronic eye diseases, such as uveitis, severe glaucoma, keratitis and eye burns."
0,BACKGROUND: Amiodarone is a benzofuran derivative used to treat cardiac arrhythmias.
0,"CONCLUSIONS: Confocal microscopy can be a useful, noninvasive imaging technique helpful in the study, diagnosis, and treatment of Acanthamoeba keratitis."
0,Chickenpox follows a severe and often fatal course in adults with renal transplants.
0,"Following overdose either agent can affect the central nervous and cardiovascular systems, inducing arrhythmias, conduction disturbances and hypotension."
0,Fatal liver failure following generalized tonic-clonic seizures.
0,Reversible coma in children after improper baclofen pump insertion.
0,Renin levels should be determined in all hypertensive children and their hypertensive parents.
0,"Treatment included double-volume exchange transfusion, phenobarbital administered prophylactically, and folinic acid rescue 18 mg every 3 hours for 16 doses."
0,"Analysis of his cerebrospinal fluid showed a decrease in loosely-bound (catalytic) iron and increase in loosely-bound (catalytic) copper, total iron and products of lipid peroxidation, with values approaching normal as the symptoms resolved."
0,"The typical manifestation is an urticarial or erythematous rash, and pruritus on the face and flexural aspects of limbs, followed by progression to dermatitis."
0,She had precordial ST-segment elevation characteristic of acute myocardial infarction and elevated cardiac biomarkers.
0,"These 14 pregnancies resulted in four live infants who had no apparent birth defects, one live-born infant with multiple defects, four spontaneous abortions, and five induced abortions."
0,The authors report a case of acute renal failure caused by fungal bezoar in the renal pelvis.
0,Toxic symptoms (sinus arrest) reappeared twice and were accompanied by increasing amounts of non-antibody-bound DGTX in the serum.
0,"The patient had no skin reactions for the next 12 mo, with the exception of injection-site papules."
0,"No severe side effects were observed in the liver, kidney, blood or the eyeground."
0,Exuberant molluscum contagiosum as a manifestation of the immune reconstitution inflammatory syndrome.
0,"In addition, known and/or possible mechanisms of the disorders are discussed."
0,Transthoracic echocardiography showed a mass in the LA.
0,INTERVENTIONS: Treatment with aspirin and prednisone in one patient.
0,A single site of oozing was injected with epinephrine.
0,A 65-year-old man with advanced prostate cancer was treated with a luteinizing hormone-releasing hormone (LH-RH) analogue.
